\beamer@sectionintoc {1}{Motivation}{3}{0}{1}
\beamer@sectionintoc {2}{PHOCNet}{14}{0}{2}
\beamer@sectionintoc {3}{Arabic script}{24}{0}{3}
\beamer@sectionintoc {4}{Method}{36}{0}{4}
\beamer@sectionintoc {5}{Experiments}{43}{0}{5}
\beamer@sectionintoc {6}{Summary}{53}{0}{6}
