\BOOKMARK [2][]{Outline0.1}{\376\377\000M\000o\000t\000i\000v\000a\000t\000i\000o\000n}{}% 1
\BOOKMARK [2][]{Outline0.2}{\376\377\000P\000H\000O\000C\000N\000e\000t}{}% 2
\BOOKMARK [2][]{Outline0.3}{\376\377\000A\000r\000a\000b\000i\000c\000\040\000s\000c\000r\000i\000p\000t}{}% 3
\BOOKMARK [2][]{Outline0.4}{\376\377\000M\000e\000t\000h\000o\000d}{}% 4
\BOOKMARK [2][]{Outline0.5}{\376\377\000E\000x\000p\000e\000r\000i\000m\000e\000n\000t\000s}{}% 5
\BOOKMARK [2][]{Outline0.6}{\376\377\000S\000u\000m\000m\000a\000r\000y}{}% 6
\BOOKMARK [1][]{Outline1}{\376\377\000A\000p\000p\000e\000n\000d\000i\000x}{}% 7
